…
``` r
fit |>
  select(lee_carter) |>
  filter(Sex == "Female") |>
  report()
#> Series: Mortality 
#> Model: LC 
#> Transformation: log(Mortality) 
#> 
#> Options:
#>   Adjust method: dt
#>   Jump choice: fit
#> 
#> Age functions
#> # A tibble: 101 × 3
#>     Age    ax     bx
#>   <int> <dbl>  <dbl>
#> 1     0 -4.33 0.0155
#> 2     1 -6.16 0.0223
#> 3     2 -6.77 0.0193
#> 4     3 -7.14 0.0187
#> 5     4 -7.18 0.0165
#> # ℹ 96 more rows
#> 
#> Time coefficients
#> # A tsibble: 124 x 2 [1Y]
#>    Year    kt
#>   <int> <dbl>
#> 1  1900  115.
#> 2  1901  109.
#> 3  1902  103.
#> 4  1903  109.
#> 5  1904  106.
#> # ℹ 119 more rows
…
``` r
fit |>
  select(lee_carter) |>
  autoplot()
```

<img src="man/figures/README-lc3-1.png" style="width:100.0%" />

``` r
fit |>
  select(lee_carter) |>
  age_components()
#> # A tibble: 202 × 4
#>    Sex      Age    ax     bx
#>    <chr>  <int> <dbl>  <dbl>
#>  1 Female     0 -4.33 0.0155
#>  2 Female     1 -6.16 0.0223
#>  3 Female     2 -6.77 0.0193
#>  4 Female     3 -7.14 0.0187
#>  5 Female     4 -7.18 0.0165
#>  6 Female     5 -7.41 0.0174
#>  7 Female     6 -7.45 0.0165
#>  8 Female     7 -7.48 0.0155
#>  9 Female     8 -7.37 0.0125
#> 10 Female     9 -7.39 0.0124
#> # ℹ 192 more rows
fit |>
  select(lee_carter) |>
  time_components()
#> # A tsibble: 248 x 3 [1Y]
#> # Key:       Sex [2]
#>    Sex     Year    kt
#>    <chr>  <int> <dbl>
#>  1 Female  1900 115. 
#>  2 Female  1901 109. 
#>  3 Female  1902 103. 
#>  4 Female  1903 109. 
#>  5 Female  1904 106. 
#>  6 Female  1905 110. 
#>  7 Female  1906 101. 
#>  8 Female  1907 106. 
#>  9 Female  1908 105. 
#> 10 Female  1909  99.6
#> # ℹ 238 more rows
```
…
