…
``` r
lc |>
  filter(Sex == "Female") |>
  report()
#> Series: Mortality 
#> Model: LC 
#> Transformation: log(Mortality) 
#> 
#> Options:
#>   Adjust method: dt
#>   Jump choice: fit
#> 
#> Age functions
#> # A tibble: 101 × 3
#>     Age    ax     bx
#>   <int> <dbl>  <dbl>
#> 1     0 -4.33 0.0155
#> 2     1 -6.16 0.0223
#> 3     2 -6.77 0.0193
#> 4     3 -7.14 0.0187
#> 5     4 -7.18 0.0165
#> # ℹ 96 more rows
#> 
#> Time coefficients
#> # A tsibble: 124 x 2 [1Y]
#>    Year    kt
#>   <int> <dbl>
#> 1  1900  115.
#> 2  1901  109.
#> 3  1902  103.
#> 4  1903  109.
#> 5  1904  106.
#> # ℹ 119 more rows
…
``` r
autoplot(lc)
```

<div class="figure">
<img src="figure/lc3-1.png" alt="plot of chunk lc3" width="100%" />
<p class="caption">plot of chunk lc3</p>
</div>

The components can be extracted.


``` r
age_components(lc)
#> # A tibble: 202 × 4
#>    Sex      Age    ax     bx
#>    <chr>  <int> <dbl>  <dbl>
#>  1 Female     0 -4.33 0.0155
#>  2 Female     1 -6.16 0.0223
#>  3 Female     2 -6.77 0.0193
#>  4 Female     3 -7.14 0.0187
#>  5 Female     4 -7.18 0.0165
#>  6 Female     5 -7.41 0.0174
#>  7 Female     6 -7.45 0.0165
#>  8 Female     7 -7.48 0.0155
#>  9 Female     8 -7.37 0.0125
#> 10 Female     9 -7.39 0.0124
#> # ℹ 192 more rows
time_components(lc)
#> # A tsibble: 248 x 3 [1Y]
#> # Key:       Sex [2]
#>    Sex     Year    kt
#>    <chr>  <int> <dbl>
#>  1 Female  1900 115. 
#>  2 Female  1901 109. 
#>  3 Female  1902 103. 
#>  4 Female  1903 109. 
#>  5 Female  1904 106. 
#>  6 Female  1905 110. 
#>  7 Female  1906 101. 
#>  8 Female  1907 106. 
#>  9 Female  1908 105. 
#> 10 Female  1909  99.6
#> # ℹ 238 more rows
```
…
<div class="figure">
<img src="figure/fdmplot-1.png" alt="plot of chunk fdmplot" width="100%" />
<p class="caption">plot of chunk fdmplot</p>
</div>

By default, six factors are estimated using `FDM()`. Here we have chosen to plot only the first three.

The components can be extracted.


``` r
age_components(fdm)
#> # A tibble: 202 × 9
#>    Sex      Age  mean  phi1     phi2     phi3    phi4     phi5    phi6
#>    <chr>  <dbl> <dbl> <dbl>    <dbl>    <dbl>   <dbl>    <dbl>   <dbl>
#>  1 Female     0 -4.34 0.133  0.257    0.0933  -0.0790 -0.0626   0.0496
#>  2 Female     1 -6.13 0.185  0.232   -0.00843 -0.243  -0.145    0.392 
#>  3 Female     2 -6.82 0.167  0.192   -0.0932  -0.239   0.00395  0.0676
#>  4 Female     3 -7.15 0.159  0.187   -0.158   -0.252   0.0838  -0.0257
#>  5 Female     4 -7.36 0.156  0.171   -0.209   -0.256   0.110   -0.119 
#>  6 Female     5 -7.50 0.153  0.145   -0.232   -0.240   0.120   -0.229 
#>  7 Female     6 -7.60 0.150  0.113   -0.241   -0.167   0.0931  -0.246 
#>  8 Female     7 -7.69 0.148  0.0761  -0.251   -0.0526  0.0317  -0.158 
#>  9 Female     8 -7.75 0.146  0.0372  -0.262    0.0586 -0.0442  -0.0344
#> 10 Female     9 -7.78 0.144 -0.00131 -0.266    0.142  -0.120    0.0639
#> # ℹ 192 more rows
time_components(fdm)
#> # A tsibble: 248 x 9 [1Y]
#> # Key:       Sex [2]
#>    Sex     Year  mean beta1   beta2  beta3    beta4   beta5  beta6
#>    <chr>  <int> <dbl> <dbl>   <dbl>  <dbl>    <dbl>   <dbl>  <dbl>
#>  1 Female  1900     1  13.7  0.0205 -0.564  0.109   -0.0526 -0.313
#>  2 Female  1901     1  13.0 -0.195  -0.790  0.0667  -0.0868 -0.300
#>  3 Female  1902     1  12.7 -0.488  -0.541 -0.0327  -0.109  -0.497
#>  4 Female  1903     1  13.4 -0.426  -0.747 -0.00132 -0.0597 -0.160
#>  5 Female  1904     1  13.1 -0.483  -0.546  0.188   -0.198  -0.403
#>  6 Female  1905     1  13.5 -0.395  -0.640 -0.0218   0.0109 -0.166
#>  7 Female  1906     1  13.0 -0.881  -0.822  0.0824  -0.105  -0.235
#>  8 Female  1907     1  13.1 -0.500  -0.335  0.279   -0.0908 -0.237
#>  9 Female  1908     1  13.0 -0.417  -0.636  0.114   -0.153  -0.207
#> 10 Female  1909     1  12.3 -0.337  -0.753  0.0418  -0.0990 -0.368
#> # ℹ 238 more rows
```
…
