Lee-Carter model — LC • vital
…
lc <- aus_mortality |>
  dplyr::filter(State == "Victoria", Sex == "female") |>
  model(lee_carter = LC(log(Mortality)))
report(lc)
#> Series: Mortality 
#> Model: LC 
#> Transformation: log(Mortality) 
#> 
#> Options:
#>   Adjust method: dt
#>   Jump choice: fit
#> 
#> Age functions
#> # A tibble: 101 × 3
#>     Age    ax     bx
#>   <int> <dbl>  <dbl>
#> 1     0 -3.87 0.0155
#> 2     1 -6.04 0.0222
#> 3     2 -6.67 0.0190
#> 4     3 -7.07 0.0191
#> 5     4 -7.06 0.0153
#> # ℹ 96 more rows
#> 
#> Time coefficients
#> # A tsibble: 103 x 2 [1Y]
#>    Year    kt
#>   <int> <dbl>
#> 1  1901  94.9
#> 2  1902  95.4
#> 3  1903  93.4
#> 4  1904  84.5
#> 5  1905  82.9
#> # ℹ 98 more rows
…
