…
``` r
lc <- norway_mortality |>
  dplyr::filter(Sex == "Female") |>
  model(lee_carter = LC(log(Mortality)))
report(lc)
#> Series: Mortality 
#> Model: LC 
#> Transformation: log(Mortality) 
#> 
#> Options:
#>   Adjust method: dt
#>   Jump choice: fit
#> 
#> Age functions
#> # A tibble: 111 × 3
#>     Age    ax     bx
#>   <int> <dbl>  <dbl>
#> 1     0 -4.33 0.0152
#> 2     1 -6.16 0.0219
#> 3     2 -6.77 0.0189
#> 4     3 -7.14 0.0184
#> 5     4 -7.18 0.0162
#> # ℹ 106 more rows
#> 
#> Time coefficients
#> # A tsibble: 124 x 2 [1Y]
#>    Year    kt
#>   <int> <dbl>
#> 1  1900  117.
#> 2  1901  111.
#> 3  1902  105.
#> 4  1903  110.
#> 5  1904  108.
#> # ℹ 119 more rows
…
