Norwegian mortality and births data — norway_births • vital
…
# Fertility
norway_fertility
#> # A tsibble: 2,464 x 4 [1Y]
#> # Key:       Age [44]
#>     Year   Age Fertility OpenInterval
#>    <int> <int>     <dbl> <lgl>       
#>  1  1967    12   0.00003 TRUE        
#>  2  1967    13   0       FALSE       
#>  3  1967    14   0.0001  FALSE       
#>  4  1967    15   0.00094 FALSE       
#>  5  1967    16   0.00753 FALSE       
#>  6  1967    17   0.0258  FALSE       
#>  7  1967    18   0.0644  FALSE       
#>  8  1967    19   0.102   FALSE       
#>  9  1967    20   0.142   FALSE       
#> 10  1967    21   0.166   FALSE       
#> # ℹ 2,454 more rows
…
